<?xml version="1.0" encoding="UTF-8"?>
<drawing version="7">
    <attr value="artix7" name="DeviceFamilyName">
        <trait delete="all:0" />
        <trait editname="all:0" />
        <trait edittrait="all:0" />
    </attr>
    <netlist>
        <signal name="XLXN_47" />
        <signal name="R" />
        <signal name="I0" />
        <signal name="XLXN_43" />
        <signal name="O" />
        <signal name="XLXN_93" />
        <signal name="XLXN_69" />
        <signal name="XLXN_94" />
        <signal name="XLXN_101" />
        <signal name="I1" />
        <port polarity="Input" name="R" />
        <port polarity="Input" name="I0" />
        <port polarity="Output" name="O" />
        <port polarity="Input" name="I1" />
        <blockdef name="and2">
            <timestamp>2000-1-1T10:10:10</timestamp>
            <line x2="64" y1="-64" y2="-64" x1="0" />
            <line x2="64" y1="-128" y2="-128" x1="0" />
            <line x2="192" y1="-96" y2="-96" x1="256" />
            <arc ex="144" ey="-144" sx="144" sy="-48" r="48" cx="144" cy="-96" />
            <line x2="64" y1="-48" y2="-48" x1="144" />
            <line x2="144" y1="-144" y2="-144" x1="64" />
            <line x2="64" y1="-48" y2="-144" x1="64" />
        </blockdef>
        <blockdef name="xor2">
            <timestamp>2000-1-1T10:10:10</timestamp>
            <line x2="64" y1="-64" y2="-64" x1="0" />
            <line x2="60" y1="-128" y2="-128" x1="0" />
            <line x2="208" y1="-96" y2="-96" x1="256" />
            <arc ex="44" ey="-144" sx="48" sy="-48" r="56" cx="16" cy="-96" />
            <arc ex="64" ey="-144" sx="64" sy="-48" r="56" cx="32" cy="-96" />
            <line x2="64" y1="-144" y2="-144" x1="128" />
            <line x2="64" y1="-48" y2="-48" x1="128" />
            <arc ex="128" ey="-144" sx="208" sy="-96" r="88" cx="132" cy="-56" />
            <arc ex="208" ey="-96" sx="128" sy="-48" r="88" cx="132" cy="-136" />
        </blockdef>
        <blockdef name="tribuff">
            <timestamp>2023-8-11T11:20:44</timestamp>
            <rect width="256" x="64" y="-128" height="128" />
            <line x2="0" y1="-96" y2="-96" x1="64" />
            <line x2="0" y1="-32" y2="-32" x1="64" />
            <line x2="384" y1="-96" y2="-96" x1="320" />
        </blockdef>
        <blockdef name="inv">
            <timestamp>2000-1-1T10:10:10</timestamp>
            <line x2="64" y1="-32" y2="-32" x1="0" />
            <line x2="160" y1="-32" y2="-32" x1="224" />
            <line x2="128" y1="-64" y2="-32" x1="64" />
            <line x2="64" y1="-32" y2="0" x1="128" />
            <line x2="64" y1="0" y2="-64" x1="64" />
            <circle r="16" cx="144" cy="-32" />
        </blockdef>
        <block symbolname="and2" name="XLXI_2">
            <blockpin signalname="R" name="I0" />
            <blockpin signalname="I0" name="I1" />
            <blockpin signalname="XLXN_93" name="O" />
        </block>
        <block symbolname="tribuff" name="XLXI_38">
            <blockpin signalname="XLXN_101" name="I" />
            <blockpin signalname="XLXN_43" name="E" />
            <blockpin signalname="XLXN_47" name="O" />
        </block>
        <block symbolname="xor2" name="XLXI_31">
            <blockpin signalname="XLXN_93" name="I0" />
            <blockpin signalname="XLXN_69" name="I1" />
            <blockpin signalname="XLXN_43" name="O" />
        </block>
        <block symbolname="and2" name="XLXI_25">
            <blockpin signalname="R" name="I0" />
            <blockpin signalname="XLXN_47" name="I1" />
            <blockpin signalname="O" name="O" />
        </block>
        <block symbolname="and2" name="XLXI_1">
            <blockpin signalname="I1" name="I0" />
            <blockpin signalname="R" name="I1" />
            <blockpin signalname="XLXN_69" name="O" />
        </block>
        <block symbolname="and2" name="XLXI_48">
            <blockpin signalname="XLXN_94" name="I0" />
            <blockpin signalname="XLXN_69" name="I1" />
            <blockpin signalname="XLXN_101" name="O" />
        </block>
        <block symbolname="inv" name="XLXI_51">
            <blockpin signalname="XLXN_93" name="I" />
            <blockpin signalname="XLXN_94" name="O" />
        </block>
    </netlist>
    <sheet sheetnum="1" width="1760" height="1360">
        <instance x="272" y="928" name="XLXI_2" orien="R0" />
        <branch name="I0">
            <wire x2="272" y1="800" y2="800" x1="176" />
        </branch>
        <branch name="XLXN_43">
            <wire x2="960" y1="800" y2="800" x1="928" />
        </branch>
        <iomarker fontsize="28" x="160" y="944" name="R" orien="R180" />
        <iomarker fontsize="28" x="176" y="800" name="I0" orien="R180" />
        <branch name="XLXN_47">
            <wire x2="1376" y1="736" y2="736" x1="1344" />
        </branch>
        <instance x="1376" y="864" name="XLXI_25" orien="R0" />
        <branch name="O">
            <wire x2="1680" y1="768" y2="768" x1="1632" />
        </branch>
        <iomarker fontsize="28" x="1680" y="768" name="O" orien="R0" />
        <instance x="960" y="832" name="XLXI_38" orien="R0">
        </instance>
        <instance x="672" y="896" name="XLXI_31" orien="R0" />
        <branch name="XLXN_93">
            <wire x2="624" y1="832" y2="832" x1="528" />
            <wire x2="672" y1="832" y2="832" x1="624" />
            <wire x2="624" y1="736" y2="832" x1="624" />
        </branch>
        <branch name="R">
            <wire x2="224" y1="944" y2="944" x1="160" />
            <wire x2="1344" y1="944" y2="944" x1="224" />
            <wire x2="256" y1="592" y2="592" x1="224" />
            <wire x2="224" y1="592" y2="864" x1="224" />
            <wire x2="272" y1="864" y2="864" x1="224" />
            <wire x2="224" y1="864" y2="944" x1="224" />
            <wire x2="1344" y1="800" y2="944" x1="1344" />
            <wire x2="1376" y1="800" y2="800" x1="1344" />
        </branch>
        <instance x="256" y="720" name="XLXI_1" orien="R0" />
        <branch name="I1">
            <wire x2="256" y1="656" y2="656" x1="192" />
        </branch>
        <iomarker fontsize="28" x="192" y="656" name="I1" orien="R180" />
        <instance x="704" y="560" name="XLXI_48" orien="R0" />
        <branch name="XLXN_69">
            <wire x2="528" y1="624" y2="624" x1="512" />
            <wire x2="528" y1="624" y2="768" x1="528" />
            <wire x2="672" y1="768" y2="768" x1="528" />
            <wire x2="704" y1="432" y2="432" x1="528" />
            <wire x2="528" y1="432" y2="624" x1="528" />
        </branch>
        <branch name="XLXN_101">
            <wire x2="960" y1="464" y2="720" x1="960" />
            <wire x2="960" y1="720" y2="736" x1="960" />
        </branch>
        <rect style="linecolor:rgb(255,0,0);fillcolor:rgb(255,0,0)" width="632" x="688" y="596" height="304" />
        <branch name="XLXN_94">
            <wire x2="688" y1="496" y2="496" x1="624" />
            <wire x2="704" y1="496" y2="496" x1="688" />
            <wire x2="624" y1="496" y2="512" x1="624" />
        </branch>
        <instance x="656" y="736" name="XLXI_51" orien="R270" />
        <text style="fontsize:150;fontname:Arial" x="412" y="168">ENCODER 2:1</text>
    </sheet>
</drawing>