<?xml version="1.0" encoding="UTF-8"?>
<drawing version="7">
    <attr value="artix7" name="DeviceFamilyName">
        <trait delete="all:0" />
        <trait editname="all:0" />
        <trait edittrait="all:0" />
    </attr>
    <netlist>
    </netlist>
    <sheet sheetnum="1" width="1760" height="1360">
        <text style="fontsize:60;fontname:Arial" x="532" y="68">4-BIT TWOs COMPLIMENT</text>
    </sheet>
</drawing>