<?xml version="1.0" encoding="UTF-8"?>
<symbol version="7" name="HA">
    <symboltype>BLOCK</symboltype>
    <timestamp>2023-6-29T23:12:55</timestamp>
    <pin polarity="Input" x="0" y="-32" name="B" />
    <pin polarity="Input" x="0" y="-128" name="A" />
    <pin polarity="Output" x="304" y="-128" name="C" />
    <pin polarity="Output" x="304" y="-32" name="S" />
    <graph>
        <line x2="0" y1="-32" y2="-32" x1="64" />
        <rect width="176" x="64" y="-156" height="156" />
        <attrtext style="fontsize:24;fontname:Arial" attrname="PinName" x="96" y="-112" type="pin A" />
        <attrtext style="fontsize:24;fontname:Arial" attrname="PinName" x="96" y="-44" type="pin B" />
        <line x2="304" y1="-128" y2="-128" x1="240" />
        <attrtext style="alignment:RIGHT;fontsize:24;fontname:Arial" attrname="PinName" x="208" y="-44" type="pin S" />
        <line x2="304" y1="-32" y2="-32" x1="240" />
        <line x2="0" y1="-128" y2="-128" x1="64" />
        <attrtext style="alignment:RIGHT;fontsize:24;fontname:Arial" attrname="PinName" x="208" y="-112" type="pin C" />
        <attrtext style="alignment:BCENTER;fontsize:56;fontname:Arial" attrname="SymbolName" x="152" y="-164" type="symbol" />
    </graph>
</symbol>
