<?xml version="1.0" encoding="UTF-8"?>
<drawing version="7">
    <attr value="artix7" name="DeviceFamilyName">
        <trait delete="all:0" />
        <trait editname="all:0" />
        <trait edittrait="all:0" />
    </attr>
    <netlist>
    </netlist>
    <sheet sheetnum="1" width="3520" height="2720">
        <text style="fontsize:100;fontname:Arial" x="708" y="196">4-BIT SIGNED ADDER/ 8-BIT UNSIGNED ADDER</text>
    </sheet>
</drawing>