#-----------------------------------------------------------
# PlanAhead v14.7
# Build 321239 by xbuild on Fri Sep 27 19:31:35 MDT 2013
# Start of session at: Fri Jul 28 12:06:42 2023
# Process ID: 1912
# Log file: C:/Users/salty/Desktop/vlsi/sequential/schematic-seq/planAhead_run_2/planAhead.log
# Journal file: C:/Users/salty/Desktop/vlsi/sequential/schematic-seq/planAhead_run_2/planAhead.jou
#-----------------------------------------------------------
INFO: [Common 17-78] Attempting to get a license: PlanAhead
INFO: [Common 17-290] Got license for PlanAhead
INFO: [Common 17-86] Your PlanAhead license expires in -2157 day(s)
INFO: [Device 21-36] Loading parts and site information from C:/Xilinx/14.7/ISE_DS/PlanAhead/data/parts/arch.xml
Parsing RTL primitives file [C:/Xilinx/14.7/ISE_DS/PlanAhead/data/parts/xilinx/rtl/prims/rtl_prims.xml]
Finished parsing RTL primitives file [C:/Xilinx/14.7/ISE_DS/PlanAhead/data/parts/xilinx/rtl/prims/rtl_prims.xml]
start_gui
source C:/Users/salty/Desktop/vlsi/sequential/schematic-seq/pa.fromHdl.tcl
# create_project -name schematic-seq -dir "C:/Users/salty/Desktop/vlsi/sequential/schematic-seq/planAhead_run_2" -part xc7a100tcsg324-3
# set_param project.pinAheadLayout yes
# set srcset [get_property srcset [current_run -impl]]
# set_property target_constrs_file "JohnsonCounter.ucf" [current_fileset -constrset]
Adding file 'C:/Users/salty/Desktop/vlsi/sequential/schematic-seq/JohnsonCounter.ucf' to fileset 'constrs_1'
# set hdlfile [add_files [list {JKMasterSlave.vf}]]
# set_property file_type Verilog $hdlfile
# set_property library work $hdlfile
# set hdlfile [add_files [list {TFlipFlop.vf}]]
# set_property file_type Verilog $hdlfile
# set_property library work $hdlfile
# set hdlfile [add_files [list {OneSecTimer.vf}]]
# set_property file_type Verilog $hdlfile
# set_property library work $hdlfile
# set hdlfile [add_files [list {DFlipFLop.vf}]]
# set_property file_type Verilog $hdlfile
# set_property library work $hdlfile
# set hdlfile [add_files [list {JohnsonCounter.vf}]]
# set_property file_type Verilog $hdlfile
# set_property library work $hdlfile
# set_property top JohnsonCounter $srcset
# add_files [list {JohnsonCounter.ucf}] -fileset [get_property constrset [current_run]]
# open_rtl_design -part xc7a100tcsg324-3
Using Verific elaboration
Parsing VHDL file "C:/Xilinx/14.7/ISE_DS/PlanAhead/data/parts/xilinx/rtl/lib/synplify/synattr.vhd" into library synplify
Analyzing Verilog file "C:/Users/salty/Desktop/vlsi/sequential/schematic-seq/JohnsonCounter.vf" into library work
INFO: [Netlist 29-17] Analyzing 310 Unisim elements for replacement
INFO: [Netlist 29-28] Unisim Transformation completed in 0 CPU seconds
Loading clock regions from C:/Xilinx/14.7/ISE_DS/PlanAhead/data\parts/xilinx/artix7/artix7/xc7a100t/ClockRegion.xml
Loading clock buffers from C:/Xilinx/14.7/ISE_DS/PlanAhead/data\parts/xilinx/artix7/artix7/xc7a100t/ClockBuffers.xml
Loading clock placement rules from C:/Xilinx/14.7/ISE_DS/PlanAhead/data/parts/xilinx/artix7/ClockPlacerRules.xml
Loading package pin functions from C:/Xilinx/14.7/ISE_DS/PlanAhead/data\parts/xilinx/artix7/PinFunctions.xml...
Loading package from C:/Xilinx/14.7/ISE_DS/PlanAhead/data\parts/xilinx/artix7/artix7/xc7a100t/csg324/Package.xml
Loading io standards from C:/Xilinx/14.7/ISE_DS/PlanAhead/data\./parts/xilinx/artix7/IOStandards.xml
Loading device configuration modes from C:/Xilinx/14.7/ISE_DS/PlanAhead/data\parts/xilinx/artix7/ConfigModes.xml
Loading list of drcs for the architecture : C:/Xilinx/14.7/ISE_DS/PlanAhead/data\./parts/xilinx/artix7/drc.xml
Parsing UCF File [C:/Users/salty/Desktop/vlsi/sequential/schematic-seq/JohnsonCounter.ucf]
Finished Parsing UCF File [C:/Users/salty/Desktop/vlsi/sequential/schematic-seq/JohnsonCounter.ucf]
INFO: [Project 1-111] Unisim Transformation Summary:
  A total of 310 instances were transformed.
  NAND2 => LUT2: 124 instances
  NAND3 => LUT3: 124 instances
  OR2B1 => LUT2: 62 instances

Phase 0 | Netlist Checksum: dd879825
open_rtl_design: Time (s): elapsed = 00:00:17 . Memory (MB): peak = 791.555 ; gain = 350.125
update_compile_order -fileset sim_1
startgroup
set_property package_pin E3 [get_ports clk]
endgroup
startgroup
set_property package_pin V11 [get_ports Q0]
endgroup
startgroup
set_property package_pin V12 [get_ports Q1]
endgroup
startgroup
set_property package_pin V14 [get_ports Q2]
endgroup
startgroup
set_property package_pin V15 [get_ports Q3]
endgroup
startgroup
set_property package_pin V10 [get_ports clear]
endgroup
set_property iostandard LVCMOS33 [get_ports [list clear]]
set_property iostandard LVCMOS33 [get_ports [list clk]]
set_property iostandard LVCMOS33 [get_ports [list Q0]]
set_property iostandard LVCMOS33 [get_ports [list Q1]]
set_property iostandard LVCMOS33 [get_ports [list Q2]]
set_property iostandard LVCMOS33 [get_ports [list Q3]]
save_constraints
exit
ERROR: [PlanAhead 12-106] *** Exception: ui.h.b: Found deleted key in HTclEventBroker. Verify if the classes listed here call cleanup()
HTclEvent: SIGNAL_BUS_MODIFY   Classes: ui.views.aR 
HTclEvent: DEBUG_CORE_CONFIG_CHANGE   Classes: ui.views.aR 
HTclEvent: DEBUG_PORT_CONFIG_CHANGE   Classes: ui.views.aR 
HTclEvent: SIGNAL_MODIFY   Classes: ui.views.aR 
 (See C:/Users/salty/Desktop/vlsi/sequential/schematic-seq\planAhead_pid1912.debug)
ERROR: [Common 17-39] 'stop_gui' failed due to earlier errors.
INFO: [Common 17-206] Exiting PlanAhead at Fri Jul 28 04:30:05 2023...
INFO: [Common 17-83] Releasing license: PlanAhead
