<?xml version="1.0" encoding="UTF-8"?>
<drawing version="7">
    <attr value="artix7" name="DeviceFamilyName">
        <trait delete="all:0" />
        <trait editname="all:0" />
        <trait edittrait="all:0" />
    </attr>
    <netlist>
    </netlist>
    <sheet sheetnum="1" width="2720" height="1760">
    </sheet>
</drawing>